^C:\USERS\KRISTIAN\DOCUMENTS\VISUAL STUDIO 2013\PROJECTS\LANDMARK\LANDMARK\BLINK.CPP
/c /I"D:\Proyecto_librerias\dlib-19.0" /ID:\Proyecto_librerias\opencv24\opencv\build\include /ZI /nologo /W3 /WX- /sdl /Od /Oy- /D WIN32 /D _DEBUG /D _CONSOLE /D _LIB /D _UNICODE /D UNICODE /Gm /EHsc /RTC1 /MDd /GS /fp:precise /Zc:wchar_t /Zc:forScope /Fo"DEBUG\\" /Fd"DEBUG\VC120.PDB" /Gd /TP /analyze- C:\USERS\KRISTIAN\DOCUMENTS\VISUAL STUDIO 2013\PROJECTS\LANDMARK\LANDMARK\BLINK.CPP
^D:\PROYECTO_LIBRERIAS\DLIB-19.0\DLIB\ALL\SOURCE.CPP
/c /I"D:\Proyecto_librerias\dlib-19.0" /ID:\Proyecto_librerias\opencv24\opencv\build\include /ZI /nologo /W3 /WX- /sdl /Od /Oy- /D WIN32 /D _DEBUG /D _CONSOLE /D _LIB /D _UNICODE /D UNICODE /Gm /EHsc /RTC1 /MDd /GS /fp:precise /Zc:wchar_t /Zc:forScope /Fo"DEBUG\\" /Fd"DEBUG\VC120.PDB" /Gd /TP /analyze- D:\PROYECTO_LIBRERIAS\DLIB-19.0\DLIB\ALL\SOURCE.CPP
^C:\USERS\KRISTIAN\DOCUMENTS\VISUAL STUDIO 2013\PROJECTS\LANDMARK\LANDMARK\LANDMARK.CPP
/c /I"D:\Proyecto_librerias\dlib-19.0" /ID:\Proyecto_librerias\opencv24\opencv\build\include /ZI /nologo /W3 /WX- /sdl /Od /Oy- /D WIN32 /D _DEBUG /D _CONSOLE /D _LIB /D _UNICODE /D UNICODE /Gm /EHsc /RTC1 /MDd /GS /fp:precise /Zc:wchar_t /Zc:forScope /Fo"DEBUG\\" /Fd"DEBUG\VC120.PDB" /Gd /TP /analyze- C:\USERS\KRISTIAN\DOCUMENTS\VISUAL STUDIO 2013\PROJECTS\LANDMARK\LANDMARK\LANDMARK.CPP
